Breckin Hadley - Analysis of the original Star Wars Trilogy
…
Loading required package: viridisLite

Rows: 2523 Columns: 2
── Column specification ────────────────────────────────────────────────────────
Delimiter: ","
chr (2): name, line

ℹ Use `spec()` to retrieve the full column specification for this data.
ℹ Specify the column types or set `show_col_types = FALSE` to quiet this message.

# A tibble: 25,937 × 3
   name     movie    word   
   <chr>    <chr>    <chr>  
 1 THREEPIO new_hope did    
 2 THREEPIO new_hope you    
 3 THREEPIO new_hope hear   
 4 THREEPIO new_hope that   
 5 THREEPIO new_hope they've
 6 THREEPIO new_hope shut   
 7 THREEPIO new_hope down   
 8 THREEPIO new_hope the    
 9 THREEPIO new_hope main   
10 THREEPIO new_hope reactor
# ℹ 25,927 more rows
…
